{"people":{"result":[{"url":"https://staff.yandex-team.ru/amayammi","click_urls":["//clck.yandex.ru/click/dtype=SAAS/p=0/saas_url=https%3A%2F%2Fstaff.yandex-team.ru%2Famayammi/robot=0/r=%25D0%25A1%25D0%25B0%25D0%25BF%25D1%2582%25D0%25B5%25D1%2585/service=intrasearch-people/kps=83933/uid=is1120000001250784/yandexuid=is1120000001250784/reqid=1755216759694491-15710859653094137401-saas-searchproxy-stable-sas-29-SAAS-intrasearch-people/raId=95F6B9F318A5F4F4/slots=1336090,0,95;1336106,0,94;1329318,0,70;1334186,0,21;1211160,0,86/how=rlv/*data=url%3Dhttps%3A%2F%2Fstaff.yandex-team.ru%2Famayammi"],"layer":"people","id":"amayammi","title":"Артем Ямбаршев","staff_id":319491,"uid":"1120000000389344","login":"amayammi","name":{"first":"Артем","last":"Ямбаршев","middle":""},"is_dismissed":false,"affiliation":"external","is_robot":false,"is_memorial":false,"staff_agreement":true,"person_skills":["Скам-мастер"]},{"url":"https://staff.yandex-team.ru/robot-support-taxi","click_urls":["//clck.yandex.ru/click/dtype=SAAS/p=1/saas_url=https%3A%2F%2Fstaff.yandex-team.ru%2Frobot-support-taxi/robot=0/r=%25D0%25A1%25D0%25B0%25D0%25BF%25D1%2582%25D0%25B5%25D1%2585/service=intrasearch-people/kps=83933/uid=is1120000001250784/yandexuid=is1120000001250784/reqid=1755216759694491-15710859653094137401-saas-searchproxy-stable-sas-29-SAAS-intrasearch-people/raId=95F6B9F318A5F4F4/slots=1336090,0,95;1336106,0,94;1329318,0,70;1334186,0,21;1211160,0,86/how=rlv/*data=url%3Dhttps%3A%2F%2Fstaff.yandex-team.ru%2Frobot-support-taxi"],"layer":"people","id":"robot-support-taxi","title":"Робот Саптеха","staff_id":25462,"uid":"1120000000050978","login":"robot-support-taxi","name":{"first":"Робот","last":"Саптеха","middle":""},"is_dismissed":false,"affiliation":"external","is_robot":true,"is_memorial":false,"staff_agreement":false,"person_skills":[]},{"url":"https://staff.yandex-team.ru/notjusttea","click_urls":["//clck.yandex.ru/click/dtype=SAAS/p=2/saas_url=https%3A%2F%2Fstaff.yandex-team.ru%2Fnotjusttea/robot=0/r=%25D0%25A1%25D0%25B0%25D0%25BF%25D1%2582%25D0%25B5%25D1%2585/service=intrasearch-people/kps=83933/uid=is1120000001250784/yandexuid=is1120000001250784/reqid=1755216759694491-15710859653094137401-saas-searchproxy-stable-sas-29-SAAS-intrasearch-people/raId=95F6B9F318A5F4F4/slots=1336090,0,95;1336106,0,94;1329318,0,70;1334186,0,21;1211160,0,86/how=rlv/*data=url%3Dhttps%3A%2F%2Fstaff.yandex-team.ru%2Fnotjusttea"],"layer":"people","id":"notjusttea","title":"Максим Иванюк","staff_id":52655,"uid":"1120000000137092","login":"notjusttea","name":{"first":"Максим","last":"Иванюк","middle":""},"is_dismissed":false,"affiliation":"external","is_robot":false,"is_memorial":false,"staff_agreement":false,"person_skills":[]},{"url":"https://staff.yandex-team.ru/ivanrybakov","click_urls":["//clck.yandex.ru/click/dtype=SAAS/p=3/saas_url=https%3A%2F%2Fstaff.yandex-team.ru%2Fivanrybakov/robot=0/r=%25D0%25A1%25D0%25B0%25D0%25BF%25D1%2582%25D0%25B5%25D1%2585/service=intrasearch-people/kps=83933/uid=is1120000001250784/yandexuid=is1120000001250784/reqid=1755216759694491-15710859653094137401-saas-searchproxy-stable-sas-29-SAAS-intrasearch-people/raId=95F6B9F318A5F4F4/slots=1336090,0,95;1336106,0,94;1329318,0,70;1334186,0,21;1211160,0,86/how=rlv/*data=url%3Dhttps%3A%2F%2Fstaff.yandex-team.ru%2Fivanrybakov"],"layer":"people","id":"ivanrybakov","title":"Иван Рыбаков","staff_id":537592,"uid":"1120000000964739","login":"ivanrybakov","name":{"first":"Иван","last":"Рыбаков","middle":""},"is_dismissed":false,"affiliation":"yandex","is_robot":false,"is_memorial":false,"staff_agreement":true,"person_skills":["Перекладывание JSON-ов","крутить бейджик"]},{"url":"https://staff.yandex-team.ru/dyshekov","click_urls":["//clck.yandex.ru/click/dtype=SAAS/p=4/saas_url=https%3A%2F%2Fstaff.yandex-team.ru%2Fdyshekov/robot=0/r=%25D0%25A1%25D0%25B0%25D0%25BF%25D1%2582%25D0%25B5%25D1%2585/service=intrasearch-people/kps=83933/uid=is1120000001250784/yandexuid=is1120000001250784/reqid=1755216759694491-15710859653094137401-saas-searchproxy-stable-sas-29-SAAS-intrasearch-people/raId=95F6B9F318A5F4F4/slots=1336090,0,95;1336106,0,94;1329318,0,70;1334186,0,21;1211160,0,86/how=rlv/*data=url%3Dhttps%3A%2F%2Fstaff.yandex-team.ru%2Fdyshekov"],"layer":"people","id":"dyshekov","title":"Мухамед Дышеков","staff_id":154414,"uid":"1120000000315708","login":"dyshekov","name":{"first":"Мухамед","last":"Дышеков","middle":""},"is_dismissed":false,"affiliation":"yandex","is_robot":false,"is_memorial":false,"staff_agreement":true,"person_skills":["Python","SQL","Планирование","Управление проектами","Agile","Принятие решений","YQL"]},{"url":"https://staff.yandex-team.ru/itakinrovodis","click_urls":["//clck.yandex.ru/click/dtype=SAAS/p=5/saas_url=https%3A%2F%2Fstaff.yandex-team.ru%2Fitakinrovodis/robot=0/r=%25D0%25A1%25D0%25B0%25D0%25BF%25D1%2582%25D0%25B5%25D1%2585/service=intrasearch-people/kps=83933/uid=is1120000001250784/yandexuid=is1120000001250784/reqid=1755216759694491-15710859653094137401-saas-searchproxy-stable-sas-29-SAAS-intrasearch-people/raId=95F6B9F318A5F4F4/slots=1336090,0,95;1336106,0,94;1329318,0,70;1334186,0,21;1211160,0,86/how=rlv/*data=url%3Dhttps%3A%2F%2Fstaff.yandex-team.ru%2Fitakinrovodis"],"layer":"people","id":"itakinrovodis","title":"Никита Сидоров","staff_id":443366,"uid":"1120000000704539","login":"itakinrovodis","name":{"first":"Никита","last":"Сидоров","middle":""},"is_dismissed":false,"affiliation":"external","is_robot":false,"is_memorial":false,"staff_agreement":true,"person_skills":[]},{"url":"https://staff.yandex-team.ru/popchenko-vs","click_urls":["//clck.yandex.ru/click/dtype=SAAS/p=6/saas_url=https%3A%2F%2Fstaff.yandex-team.ru%2Fpopchenko-vs/robot=0/r=%25D0%25A1%25D0%25B0%25D0%25BF%25D1%2582%25D0%25B5%25D1%2585/service=intrasearch-people/kps=83933/uid=is1120000001250784/yandexuid=is1120000001250784/reqid=1755216759694491-15710859653094137401-saas-searchproxy-stable-sas-29-SAAS-intrasearch-people/raId=95F6B9F318A5F4F4/slots=1336090,0,95;1336106,0,94;1329318,0,70;1334186,0,21;1211160,0,86/how=rlv/*data=url%3Dhttps%3A%2F%2Fstaff.yandex-team.ru%2Fpopchenko-vs"],"layer":"people","id":"popchenko-vs","title":"Владислав Попченко","staff_id":151948,"uid":"1120000000303838","login":"popchenko-vs","name":{"first":"Владислав","last":"Попченко","middle":""},"is_dismissed":false,"affiliation":"external","is_robot":false,"is_memorial":false,"staff_agreement":false,"person_skills":["memes","Memology"]},{"url":"https://staff.yandex-team.ru/robot-edec","click_urls":["//clck.yandex.ru/click/dtype=SAAS/p=7/saas_url=https%3A%2F%2Fstaff.yandex-team.ru%2Frobot-edec/robot=0/r=%25D0%25A1%25D0%25B0%25D0%25BF%25D1%2582%25D0%25B5%25D1%2585/service=intrasearch-people/kps=83933/uid=is1120000001250784/yandexuid=is1120000001250784/reqid=1755216759694491-15710859653094137401-saas-searchproxy-stable-sas-29-SAAS-intrasearch-people/raId=95F6B9F318A5F4F4/slots=1336090,0,95;1336106,0,94;1329318,0,70;1334186,0,21;1211160,0,86/how=rlv/*data=url%3Dhttps%3A%2F%2Fstaff.yandex-team.ru%2Frobot-edec"],"layer":"people","id":"robot-edec","title":"Едец Саптеховской","staff_id":726283,"uid":"1120000001320887","login":"robot-edec","name":{"first":"Едец","last":"Саптеховской","middle":""},"is_dismissed":false,"affiliation":"external","is_robot":true,"is_memorial":false,"staff_agreement":false,"person_skills":[]},{"url":"https://staff.yandex-team.ru/v-a-babenko","click_urls":["//clck.yandex.ru/click/dtype=SAAS/p=8/saas_url=https%3A%2F%2Fstaff.yandex-team.ru%2Fv-a-babenko/robot=0/r=%25D0%25A1%25D0%25B0%25D0%25BF%25D1%2582%25D0%25B5%25D1%2585/service=intrasearch-people/kps=83933/uid=is1120000001250784/yandexuid=is1120000001250784/reqid=1755216759694491-15710859653094137401-saas-searchproxy-stable-sas-29-SAAS-intrasearch-people/raId=95F6B9F318A5F4F4/slots=1336090,0,95;1336106,0,94;1329318,0,70;1334186,0,21;1211160,0,86/how=rlv/*data=url%3Dhttps%3A%2F%2Fstaff.yandex-team.ru%2Fv-a-babenko"],"layer":"people","id":"v-a-babenko","title":"Владислав Бабенко","staff_id":77305,"uid":"1120000000203815","login":"v-a-babenko","name":{"first":"Владислав","last":"Бабенко","middle":""},"is_dismissed":false,"affiliation":"external","is_robot":false,"is_memorial":false,"staff_agreement":true,"person_skills":[]},{"url":"https://staff.yandex-team.ru/gervantri","click_urls":["//clck.yandex.ru/click/dtype=SAAS/p=9/saas_url=https%3A%2F%2Fstaff.yandex-team.ru%2Fgervantri/robot=0/r=%25D0%25A1%25D0%25B0%25D0%25BF%25D1%2582%25D0%25B5%25D1%2585/service=intrasearch-people/kps=83933/uid=is1120000001250784/yandexuid=is1120000001250784/reqid=1755216759694491-15710859653094137401-saas-searchproxy-stable-sas-29-SAAS-intrasearch-people/raId=95F6B9F318A5F4F4/slots=1336090,0,95;1336106,0,94;1329318,0,70;1334186,0,21;1211160,0,86/how=rlv/*data=url%3Dhttps%3A%2F%2Fstaff.yandex-team.ru%2Fgervantri"],"layer":"people","id":"gervantri","title":"Кирилл Коптев","staff_id":336262,"uid":"1120000000430835","login":"gervantri","name":{"first":"Кирилл","last":"Коптев","middle":""},"is_dismissed":false,"affiliation":"yandex","is_robot":false,"is_memorial":false,"staff_agreement":true,"person_skills":["Атлетика","Акробатика","Ловкость рук","Скрытность","Магия","Расследование","Природа","Религия","Дрессировка","Проницательность","Медицина","Внимание","Выживание","Обман","Запугивание","Исполнение","Убеждение"]}],"pagination":{"page":0,"per_page":10,"pages":65,"count":641}}}